Time Count (s),Time Rel to Launch (s),Velocity (ft/s),External Battery (1=on),Control Battery (1=on),Internal Computer (1=on),External Ignition (1=on),Internal Ignition (1=on)
0,-2,0,0,0,0,0,0
0.01,-1.99,0,0,0,0,0,0
0.02,-1.98,0,0,0,0,0,0
0.03,-1.97,0,0,0,0,0,0
0.04,-1.96,0,0,0,0,0,0
0.05,-1.95,0,0,0,0,0,0
0.06,-1.94,0,0,0,0,0,0
0.07,-1.93,0,0,0,0,0,0
0.08,-1.92,0,0,0,0,0,0
0.09,-1.91,0,0,0,0,0,0
0.1,-1.9,0,0,0,0,0,0
0.11,-1.89,0,0,0,0,0,0
0.12,-1.88,0,0,0,0,0,0
0.13,-1.87,0,0,0,0,0,0
0.14,-1.86,0,0,0,0,0,0
0.15,-1.85,0,0,0,0,0,0
0.16,-1.84,0,0,0,0,0,0
0.17,-1.83,0,0,0,0,0,0
0.18,-1.82,0,0,0,0,0,0
0.19,-1.81,0,0,0,0,0,0
0.2,-1.8,0,0,0,0,0,0
0.21,-1.79,0,0,0,0,0,0
0.22,-1.78,0,0,0,0,0,0
0.23,-1.77,0,0,0,0,0,0
0.24,-1.76,0,0,0,0,0,0
0.25,-1.75,0,0,0,0,0,0
0.26,-1.74,0,0,0,0,0,0
0.27,-1.73,0,0,0,0,0,0
0.28,-1.72,0,0,0,0,0,0
0.29,-1.71,0,0,0,0,0,0
0.3,-1.7,0,0,0,0,0,0
0.31,-1.69,0,0,0,0,0,0
0.32,-1.68,0,0,0,0,0,0
0.33,-1.67,0,0,0,0,0,0
0.34,-1.66,0,0,0,0,0,0
0.35,-1.65,0,0,0,0,0,0
0.36,-1.64,0,0,0,0,0,0
0.37,-1.63,0,0,0,0,0,0
0.38,-1.62,0,0,0,0,0,0
0.39,-1.61,0,0,0,0,0,0
0.4,-1.6,0,0,0,0,0,0
0.41,-1.59,0,0,0,0,0,0
0.42,-1.58,0,0,0,0,0,0
0.43,-1.57,0,0,0,0,0,0
0.44,-1.56,0,0,0,0,0,0
0.45,-1.55,0,0,0,0,0,0
0.46,-1.54,0,0,0,0,0,0
0.47,-1.53,0,0,0,0,0,0
0.48,-1.52,0,0,0,0,0,0
0.49,-1.51,0,0,0,0,0,0
0.5,-1.5,0,1,0,0,0,0
0.51,-1.49,0,1,0,0,0,0
0.52,-1.48,0,1,0,0,0,0
0.53,-1.47,0,1,0,0,0,0
0.54,-1.46,0,1,0,0,0,0
0.55,-1.45,0,1,0,0,0,0
0.56,-1.44,0,1,0,0,0,0
0.57,-1.43,0,1,0,0,0,0
0.58,-1.42,0,1,0,0,0,0
0.59,-1.41,0,1,0,0,0,0
0.6,-1.4,0,1,0,0,0,0
0.61,-1.39,0,1,0,0,0,0
0.62,-1.38,0,1,0,0,0,0
0.63,-1.37,0,1,0,0,0,0
0.64,-1.36,0,1,0,0,0,0
0.65,-1.35,0,1,0,0,0,0
0.66,-1.34,0,1,0,0,0,0
0.67,-1.33,0,1,0,0,0,0
0.68,-1.32,0,1,0,0,0,0
0.69,-1.31,0,1,0,0,0,0
0.7,-1.3,0,1,0,0,0,0
0.71,-1.29,0,1,0,0,0,0
0.72,-1.28,0,1,0,0,0,0
0.73,-1.27,0,1,0,0,0,0
0.74,-1.26,0,1,0,0,0,0
0.75,-1.25,0,1,1,0,0,0
0.76,-1.24,0,1,1,0,0,0
0.77,-1.23,0,1,1,0,0,0
0.78,-1.22,0,1,1,0,0,0
0.79,-1.21,0,1,1,0,0,0
0.8,-1.2,0,1,1,0,0,0
0.81,-1.19,0,1,1,0,0,0
0.82,-1.18,0,1,1,0,0,0
0.83,-1.17,0,1,1,0,0,0
0.84,-1.16,0,1,1,0,0,0
0.85,-1.15,0,1,1,0,0,0
0.86,-1.14,0,1,1,0,0,0
0.87,-1.13,0,1,1,0,0,0
0.88,-1.12,0,1,1,0,0,0
0.89,-1.11,0,1,1,0,0,0
0.9,-1.1,0,1,1,0,0,0
0.91,-1.09,0,1,1,0,0,0
0.92,-1.08,0,1,1,0,0,0
0.93,-1.07,0,1,1,0,0,0
0.94,-1.06,0,1,1,0,0,0
0.95,-1.05,0,1,1,0,0,0
0.96,-1.04,0,1,1,0,0,0
0.97,-1.03,0,1,1,0,0,0
0.98,-1.02,0,1,1,0,0,0
0.99,-1.01,0,1,1,0,0,0
1,-1,0,1,1,1,0,0
1.01,-0.99,0,1,1,1,0,0
1.02,-0.98,0,1,1,1,0,0
1.03,-0.97,0,1,1,1,0,0
1.04,-0.96,0,1,1,1,0,0
1.05,-0.95,0,1,1,1,0,0
1.06,-0.94,0,1,1,1,0,0
1.07,-0.93,0,1,1,1,0,0
1.08,-0.92,0,1,1,1,0,0
1.09,-0.91,0,1,1,1,0,0
1.1,-0.9,0,1,1,1,0,0
1.11,-0.89,0,1,1,1,0,0
1.12,-0.88,0,1,1,1,0,0
1.13,-0.87,0,1,1,1,0,0
1.14,-0.86,0,1,1,1,0,0
1.15,-0.85,0,1,1,1,0,0
1.16,-0.84,0,1,1,1,0,0
1.17,-0.83,0,1,1,1,0,0
1.18,-0.82,0,1,1,1,0,0
1.19,-0.81,0,1,1,1,0,0
1.2,-0.8,0,1,1,1,0,0
1.21,-0.79,0,1,1,1,0,0
1.22,-0.78,0,1,1,1,0,0
1.23,-0.77,0,1,1,1,0,0
1.24,-0.76,0,1,1,1,0,0
1.25,-0.75,0,1,1,1,0,0
1.26,-0.74,0,1,1,1,0,0
1.27,-0.73,0,1,1,1,0,0
1.28,-0.72,0,1,1,1,0,0
1.29,-0.71,0,1,1,1,0,0
1.3,-0.7,0,1,1,1,0,0
1.31,-0.69,0,1,1,1,0,0
1.32,-0.68,0,1,1,1,0,0
1.33,-0.67,0,1,1,1,0,0
1.34,-0.66,0,1,1,1,0,0
1.35,-0.65,0,1,1,1,0,0
1.36,-0.64,0,1,1,1,0,0
1.37,-0.63,0,1,1,1,0,0
1.38,-0.62,0,1,1,1,0,0
1.39,-0.61,0,1,1,1,0,0
1.4,-0.6,0,1,1,1,0,0
1.41,-0.59,0,1,1,1,0,0
1.42,-0.58,0,1,1,1,0,0
1.43,-0.57,0,1,1,1,0,0
1.44,-0.56,0,1,1,1,0,0
1.45,-0.55,0,1,1,1,0,0
1.46,-0.54,0,1,1,1,0,0
1.47,-0.53,0,1,1,1,0,0
1.48,-0.52,0,1,1,1,0,0
1.49,-0.51,0,1,1,1,0,0
1.5,-0.5,0,1,1,1,0,0
1.51,-0.49,0,1,1,1,0,0
1.52,-0.48,0,1,1,1,0,0
1.53,-0.47,0,1,1,1,0,0
1.54,-0.46,0,1,1,1,0,0
1.55,-0.45,0,1,1,1,0,0
1.56,-0.44,0,1,1,1,0,0
1.57,-0.43,0,1,1,1,0,0
1.58,-0.42,0,1,1,1,0,0
1.59,-0.41,0,1,1,1,0,0
1.6,-0.4,0,1,1,1,0,0
1.61,-0.39,0,1,1,1,0,0
1.62,-0.38,0,1,1,1,0,0
1.63,-0.37,0,1,1,1,0,0
1.64,-0.36,0,1,1,1,0,0
1.65,-0.35,0,1,1,1,0,0
1.66,-0.34,0,1,1,1,0,0
1.67,-0.33,0,1,1,1,0,0
1.68,-0.32,0,1,1,1,0,0
1.69,-0.31,0,1,1,1,0,0
1.7,-0.3,0,1,1,1,0,0
1.71,-0.29,0,1,1,1,0,0
1.72,-0.28,0,1,1,1,0,0
1.73,-0.27,0,1,1,1,0,0
1.74,-0.26,0,1,1,1,0,0
1.75,-0.25,0,1,1,1,0,0
1.76,-0.24,0,1,1,1,0,0
1.77,-0.23,0,1,1,1,0,0
1.78,-0.22,0,1,1,1,0,0
1.79,-0.21,0,1,1,1,0,0
1.8,-0.2,0,1,1,1,0,0
1.81,-0.19,0,1,1,1,0,0
1.82,-0.18,0,1,1,1,0,0
1.83,-0.17,0,1,1,1,0,0
1.84,-0.16,0,1,1,1,0,0
1.85,-0.15,0,1,1,1,0,0
1.86,-0.14,0,1,1,1,0,0
1.87,-0.13,0,1,1,1,0,0
1.88,-0.12,0,1,1,1,0,0
1.89,-0.11,0,1,1,1,0,0
1.9,-0.1,0,1,1,1,0,0
1.91,-0.09,0,1,1,1,0,0
1.92,-0.08,0,1,1,1,0,0
1.93,-0.07,0,1,1,1,0,0
1.94,-0.06,0,1,1,1,0,0
1.95,-0.05,0,1,1,1,0,0
1.96,-0.04,0,1,1,1,0,0
1.97,-0.03,0,1,1,1,0,0
1.98,-0.02,0,1,1,1,0,0
1.99,-0.01,0,1,1,1,0,0
2,6.66133814775094E-016,0,1,1,1,0,0
2.01,0.01,0,1,1,1,0,0
2.02,0.02,0,1,1,1,0,0
2.03,0.03,0,1,1,1,0,0
2.04,0.04,0,1,1,1,0,0
2.05,0.05,0,1,1,1,0,0
2.06,0.06,0,1,1,1,0,0
2.07,0.07,0,1,1,1,0,0
2.08,0.08,0,1,1,1,0,0
2.09,0.09,0,1,1,1,0,0
2.1,0.1,0,1,1,1,0,0
2.11,0.11,0,1,1,1,0,0
2.12,0.12,0,1,1,1,0,0
2.13,0.13,0,1,1,1,0,0
2.14,0.14,0,1,1,1,0,0
2.15,0.15,0,1,1,1,0,0
2.16,0.16,0,1,1,1,0,0
2.17,0.17,0,1,1,1,0,0
2.18,0.18,0,1,1,1,0,0
2.19,0.19,0,1,1,1,0,0
2.2,0.2,0,1,1,1,0,0
2.21,0.21,0,1,1,1,0,0
2.22,0.22,0,1,1,1,0,0
2.23,0.23,0,1,1,1,0,0
2.24,0.24,0,1,1,1,0,0
2.25,0.25,0,1,1,1,0,0
2.26,0.26,0,1,1,1,0,0
2.27,0.27,0,1,1,1,0,0
2.28,0.28,0,1,1,1,0,0
2.29,0.29,0,1,1,1,0,0
2.3,0.3,0,1,1,1,0,0
2.31,0.31,0,1,1,1,0,0
2.32,0.32,0,1,1,1,0,0
2.33,0.33,0,1,1,1,0,0
2.34,0.34,0,1,1,1,0,0
2.35,0.35,0,1,1,1,0,0
2.36,0.36,0,1,1,1,0,0
2.37,0.37,0,1,1,1,0,0
2.38,0.38,0,1,1,1,0,0
2.39,0.39,0,1,1,1,0,0
2.4,0.4,0,1,1,1,0,0
2.41,0.41,0,1,1,1,0,0
2.42,0.42,0,1,1,1,0,0
2.43,0.43,0,1,1,1,0,0
2.44,0.44,0,1,1,1,0,0
2.45,0.45,0,1,1,1,0,0
2.46,0.46,0,1,1,1,0,0
2.47,0.47,0,1,1,1,0,0
2.48,0.48,0,1,1,1,0,0
2.49,0.49,0,1,1,1,0,0
2.5,0.5,0,1,1,1,0,0
2.51,0.51,0,1,1,1,0,0
2.52,0.52,0,1,1,1,0,0
2.53,0.53,0,1,1,1,0,0
2.54,0.54,0,1,1,1,0,0
2.55,0.55,0,1,1,1,0,0
2.56,0.56,0,1,1,1,0,0
2.57,0.57,0,1,1,1,0,0
2.58,0.58,0,1,1,1,0,0
2.59,0.59,0,1,1,1,0,0
2.6,0.6,0,1,1,1,0,0
2.61,0.61,0,1,1,1,0,0
2.62,0.62,0,1,1,1,0,0
2.63,0.63,0,1,1,1,0,0
2.64,0.64,0,1,1,1,0,0
2.65,0.65,0,1,1,1,0,0
2.66,0.66,0,1,1,1,0,0
2.67,0.67,0,1,1,1,0,0
2.68,0.68,0,1,1,1,0,0
2.69,0.69,0,1,1,1,0,0
2.7,0.7,0,1,1,1,0,0
2.71,0.71,0,1,1,1,0,0
2.72,0.72,0,1,1,1,0,0
2.73,0.73,0,1,1,1,0,0
2.74,0.74,0,1,1,1,0,0
2.75,0.75,0,1,1,1,0,0
2.76,0.76,0,1,1,1,0,0
2.77,0.77,0,1,1,1,0,0
2.78,0.78,0,1,1,1,0,0
2.79,0.79,0,1,1,1,0,0
2.8,0.8,0,1,1,1,0,0
2.81,0.81,0,1,1,1,0,0
2.82,0.82,0,1,1,1,0,0
2.83,0.83,0,1,1,1,0,0
2.84,0.84,0,1,1,1,0,0
2.85,0.85,0,1,1,1,0,0
2.86,0.86,0,1,1,1,0,0
2.87,0.87,0,1,1,1,0,0
2.88,0.88,0,1,1,1,0,0
2.89,0.89,0,1,1,1,0,0
2.9,0.9,0,1,1,1,0,0
2.91,0.91,0,1,1,1,0,0
2.92,0.92,0,1,1,1,0,0
2.93,0.93,0,1,1,1,0,0
2.94,0.94,0,1,1,1,0,0
2.95,0.95,0,1,1,1,0,0
2.96,0.96,0,1,1,1,0,0
2.97,0.97,0,1,1,1,1,0
2.98,0.98,0,1,1,1,1,0
2.99,0.99,0,1,1,1,1,0
3,1,0,1,1,1,1,0
3.01,1.01,0,1,1,1,1,0
3.02,1.02,0,1,1,1,1,0
3.03,1.03,0,1,1,1,1,0
3.04,1.04,0,1,1,1,1,0
3.05,1.05,0,1,1,1,1,0
3.06,1.06,0,1,1,1,1,0
3.07,1.07,0,1,1,1,1,0
3.08,1.08,0,1,1,1,1,0
3.09,1.09,0,1,1,1,1,0
3.1,1.1,0,1,1,1,1,0
3.11,1.11,0,1,1,1,1,0
3.12,1.12,0,1,1,1,1,0
3.13,1.13,0,1,1,1,1,0
3.14,1.14,0,1,1,1,1,0
3.15,1.15,0,1,1,1,1,0
3.16,1.16,0,1,1,1,1,0
3.17,1.17,0,1,1,1,1,0
3.18,1.18,0,1,1,1,1,0
3.19,1.19,0,1,1,1,1,0
3.2,1.2,0,1,1,1,1,0
3.21,1.21,0,1,1,1,1,0
3.22,1.22,0,1,1,1,1,0
3.23,1.23,0,1,1,1,1,0
3.24,1.24,0,1,1,1,1,0
3.25,1.25,0,1,1,1,1,0
3.26,1.26,0,1,1,1,1,0
3.27,1.27,0,1,1,1,1,0
3.28,1.28,0,1,1,1,1,0
3.29,1.29,0,1,1,1,1,0
3.3,1.3,0,1,1,1,1,0
3.31,1.31,0,1,1,1,1,0
3.32,1.32,0,1,1,1,1,0
3.33,1.33,0,1,1,1,1,0
3.34,1.34,0,1,1,1,1,0
3.35,1.35,0,1,1,1,1,0
3.36,1.36,0,1,1,1,1,0
3.37,1.37,0,1,1,1,1,0
3.38,1.38,0,1,1,1,1,0
3.39,1.39,0,1,1,1,1,0
3.4,1.4,0,1,1,1,1,0
3.41,1.41,0,1,1,1,1,0
3.42,1.42,0,1,1,1,1,0
3.43,1.43,0,1,1,1,1,0
3.44,1.44,0,1,1,1,1,0
3.45,1.45,0,1,1,1,1,0
3.46,1.46,0,1,1,1,1,0
3.47,1.47,0,1,1,1,1,0
3.48,1.48,0,1,1,1,1,0
3.49,1.49,0,1,1,1,1,0
3.5,1.5,0,1,1,1,1,0
3.51,1.51,0,1,1,1,1,0
3.52,1.52,0,1,1,1,1,0
3.53,1.53,0,1,1,1,1,0
3.54,1.54,0,1,1,1,1,0
3.55,1.55,0,1,1,1,1,0
3.56,1.56,0,1,1,1,1,0
3.57,1.57,0,1,1,1,1,0
3.58,1.58,0,1,1,1,1,0
3.59,1.59,0,1,1,1,1,0
3.6,1.6,0,1,1,1,1,0
3.61,1.61,0,1,1,1,1,0
3.62,1.62,0,1,1,1,1,0
3.63,1.63,0,1,1,1,1,0
3.64,1.64,0,1,1,1,1,0
3.65,1.65,0,1,1,1,1,0
3.66,1.66,0,1,1,1,1,0
3.67,1.67,0,1,1,1,1,0
3.68,1.68,0,1,1,1,1,0
3.69,1.69,0,1,1,1,1,0
3.7,1.7,0,1,1,1,1,0
3.71,1.71,0,1,1,1,1,0
3.72,1.72,0,1,1,1,1,0
3.73,1.73,0,1,1,1,1,0
3.74,1.74,0,1,1,1,1,1
3.75,1.75,0,1,1,1,1,1
3.76,1.76,0,1,1,1,1,1
3.77,1.77,0,1,1,1,1,1
3.78,1.78,0,1,1,1,1,1
3.79,1.79,0,1,1,1,1,1
3.8,1.8,0,1,1,1,1,1
3.81,1.81,0,1,1,1,1,1
3.82,1.82,0,1,1,1,1,1
3.83,1.83,0,1,1,1,1,1
3.84,1.84,0,1,1,1,1,1
3.85,1.85,0,1,1,1,1,1
3.86,1.86,0,1,1,1,1,1
3.87,1.87,0,1,1,1,1,1
3.88,1.88,0,1,1,1,1,1
3.89,1.89,0,1,1,1,1,1
3.9,1.9,0,1,1,1,1,1
3.91,1.91,0,1,1,1,1,1
3.92,1.92,0,1,1,1,1,1
3.93,1.93,0,1,1,1,1,1
3.94,1.94,0,1,1,1,1,1
3.95,1.95,0,1,1,1,1,1
3.96,1.96,0,1,1,1,1,1
3.97,1.97,0,1,1,1,1,1
3.98,1.98,0,1,1,1,1,1
3.99,1.99,0,1,1,1,1,1
4,2,0,1,1,1,1,1
4.01,2.01,0,1,1,1,1,1
4.02,2.02,0,1,1,1,1,1
4.03,2.03,0,1,1,1,1,1
4.04,2.04,0,1,1,1,1,1
4.05,2.05,0,1,1,1,1,1
4.06,2.06,0,1,1,1,1,1
4.07,2.07,0,1,1,1,1,1
4.08,2.08,0,1,1,1,1,1
4.09,2.09,0,1,1,1,1,1
4.1,2.1,0,1,1,1,1,1
4.11,2.11,0,1,1,1,1,1
4.12,2.12,0,1,1,1,1,1
4.13,2.13,0,1,1,1,1,1
4.14,2.14,0,1,1,1,1,1
4.15,2.15,0,1,1,1,1,1
4.16,2.16,0,1,1,1,1,1
4.17,2.17,0,1,1,1,1,1
4.18,2.18,0,1,1,1,1,1
4.19,2.19,0,1,1,1,1,1
4.2,2.2,0,1,1,1,1,1
4.21,2.21,0,1,1,1,1,1
4.22,2.22,0,1,1,1,1,1
4.23,2.23,0,1,1,1,1,1
4.24,2.24,0,1,1,1,1,1
4.25,2.25,0,1,1,1,1,1
4.26,2.26,0,1,1,1,1,1
4.27,2.27,0,1,1,1,1,1
4.28,2.28,0,1,1,1,1,1
4.29,2.29,0,1,1,1,1,1
4.3,2.3,0,1,1,1,1,1
4.31,2.31,0,1,1,1,1,1
4.32,2.32,0,1,1,1,1,1
4.33,2.33,0,1,1,1,1,1
4.34,2.34,0,1,1,1,1,1
4.35,2.35,0,1,1,1,1,1
4.36,2.36,0,1,1,1,1,1
4.37,2.37,0,1,1,1,1,1
4.38,2.38,0,1,1,1,1,1
4.39,2.39,0,1,1,1,1,1
4.4,2.4,0,1,1,1,1,1
4.41,2.41,0,1,1,1,1,1
4.42,2.42,0,1,1,1,1,1
4.43,2.43,0,1,1,1,1,1
4.44,2.44,0,1,1,1,1,1
4.45,2.45,0,1,1,1,1,1
4.46,2.46,0,1,1,1,1,1
4.47,2.47,0,1,1,1,1,1
4.48,2.48,0,1,1,1,1,1
4.49,2.49,0,1,1,1,1,1
4.5,2.5,0,1,1,1,1,1
4.51,2.51,0,1,1,1,1,1
4.52,2.52,0,1,1,1,1,1
4.53,2.53,0,1,1,1,1,1
4.54,2.54,0,1,1,1,1,1
4.55,2.55,0,1,1,1,1,1
4.56,2.56,0,1,1,1,1,1
4.57,2.57,0,1,1,1,1,1
4.58,2.58,0,1,1,1,1,1
4.59,2.59,0,1,1,1,1,1
4.6,2.6,0,1,1,1,1,1
4.61,2.61,0,1,1,1,1,1
4.62,2.62,0,1,1,1,1,1
4.63,2.63,0,1,1,1,1,1
4.64,2.64,0,1,1,1,1,1
4.65,2.65,0,1,1,1,1,1
4.66,2.66,0,1,1,1,1,1
4.67,2.67,0,1,1,1,1,1
4.68,2.68,0,1,1,1,1,1
4.69,2.69,0,1,1,1,1,1
4.7,2.7,0,1,1,1,1,1
4.71,2.71,0,1,1,1,1,1
4.72,2.72,0,1,1,1,1,1
4.73,2.73,0,1,1,1,1,1
4.74,2.74,0,1,1,1,1,1
4.75,2.75,0,1,1,1,1,1
4.76,2.76,0,1,1,1,1,1
4.77,2.77,0,1,1,1,1,1
4.78,2.78,0,1,1,1,1,1
4.79,2.79,0,1,1,1,1,1
4.8,2.8,0,1,1,1,1,1
4.81,2.81,0,1,1,1,1,1
4.82,2.82,0,1,1,1,1,1
4.83,2.83,0,1,1,1,1,1
4.84,2.84,0,1,1,1,1,1
4.85,2.85,0,1,1,1,1,1
4.86,2.86,0,1,1,1,1,1
4.87,2.87,0,1,1,1,1,1
4.88,2.88,0,1,1,1,1,1
4.89,2.89,0,1,1,1,1,1
4.9,2.9,0,1,1,1,1,1
4.91,2.91,0,1,1,1,1,1
4.92,2.92,0,1,1,1,1,1
4.93,2.93,0,1,1,1,1,1
4.94,2.94,0,1,1,1,1,1
4.95,2.95,0,1,1,1,1,1
4.96,2.96,0,1,1,1,1,1
4.97,2.97,0,1,1,1,1,1
4.98,2.98,0,1,1,1,1,1
4.99,2.99,0,1,1,1,1,1
5,3,0,1,1,1,1,1
5.01,3.01,0,1,1,1,1,1
5.02,3.02,0,1,1,1,1,1
5.03,3.03,0,1,1,1,1,1
5.04,3.04,0,1,1,1,1,1
5.05,3.05,0,1,1,1,1,1
5.06,3.06,0,1,1,1,1,1
5.07,3.07,0,1,1,1,1,1
5.08,3.08,0,1,1,1,1,1
5.09,3.09,0,1,1,1,1,1
5.1,3.1,0,1,1,1,1,1
5.11,3.11,0,1,1,1,1,1
5.12,3.12,0,1,1,1,1,1
5.13,3.13,0,1,1,1,1,1
5.14,3.14,0,1,1,1,1,1
5.15,3.15,0,1,1,1,1,1
